{
  "images" : [
    {
      "idiom" : "universal",
      "filename" : "logo.png",
      "scale" : "1x"
    },
    {
      "idiom" : "universal",
      "filename" : "logo@2x.png",
      "scale" : "2x"
    },
    {
      "idiom" : "universal",
      "filename" : "logo@3x.png",
      "scale" : "3x"
    }
  ],
  "info" : {
    "version" : 1,
    "author" : "xcode"
  },
  "properties" : {
    "auto-scaling" : "auto",
    "compression-type" : "lossy",
    "preserves-vector-representation" : true,
    "template-rendering-intent" : "original"
  }
}