
{
    "cities": [
        {
            "id": 1,
            "name": "Hà Nội",
            "location": {
                "name": "Hà Nội",
                "latidue": 21.030427,
                "longtidue": 105.853824,
                "address": "Hang Trong, Hoàn kiếm, Hanoi, Vietnam",
                "city": "Ha Noi",
                "country": "Viet Nam"
                }
        }
    ]
}
